{
	"info": {
		"_postman_id": "e351fd34-e8c2-4a93-be09-469fbe51f9bc",
		"name": "perndemo-ts",
		"schema": "https://schema.getpostman.com/json/collection/v2.1.0/collection.json"
	},
	"item": [
		{
			"name": "Auth",
			"item": [
				{
					"name": "Authenticate",
					"event": [
						{
							"listen": "test",
							"script": {
								"exec": [
									"pm.test(\"Status code is 200\", function () {",
									"    pm.response.to.have.status(200);",
									"    pm.expect(pm.response.text()).to.include(\"accessToken\")",
									"    pm.expect(pm.response.text()).to.include(\"refreshToken\")",
									"    ",
									"    const response = JSON.parse(pm.response.text())",
									"    pm.environment.set(\"ACCESS_TOKEN\", response.accessToken);",
									"    pm.environment.set(\"REFRESH_TOKEN\", response.refreshToken);",
									"});"
								],
								"type": "text/javascript"
							}
						}
					],
					"request": {
						"method": "POST",
						"header": [
							{
								"key": "Content-Type",
								"value": "application/json",
								"type": "text"
							}
						],
						"body": {
							"mode": "raw",
							"raw": "{\n    \"email\": \"rdfedor@gmail.com\",\n    \"password\" : \"password\"\n}",
							"options": {
								"raw": {
									"language": "json"
								}
							}
						},
						"url": {
							"raw": "{{url}}/api/auth",
							"host": [
								"{{url}}"
							],
							"path": [
								"api",
								"auth"
							]
						}
					},
					"response": []
				},
				{
					"name": "Register",
					"event": [
						{
							"listen": "test",
							"script": {
								"exec": [
									"pm.test(\"Status code is 200\", function () {",
									"    pm.response.to.have.status(200);",
									"    pm.expect(pm.response.text()).to.include(\"accessToken\")",
									"    pm.expect(pm.response.text()).to.include(\"refreshToken\")",
									"    ",
									"    const response = JSON.parse(pm.response.text())",
									"    pm.environment.set(\"ACCESS_TOKEN\", response.accessToken);",
									"    pm.environment.set(\"REFRESH_TOKEN\", response.refreshToken);",
									"});"
								],
								"type": "text/javascript"
							}
						}
					],
					"request": {
						"method": "POST",
						"header": [
							{
								"key": "Content-Type",
								"type": "text",
								"value": "application/json"
							}
						],
						"body": {
							"mode": "raw",
							"raw": "{\n    \"firstName\": \"Roger\",\n    \"lastName\": \"Fedor\",\n    \"password\" : \"password\",\n    \"token\": \"{{VERIFY_EMAIL_TOKEN}}\",\n    \"challengeCode\": \"157723\"\n}",
							"options": {
								"raw": {
									"language": "json"
								}
							}
						},
						"url": {
							"raw": "{{url}}/api/auth/register",
							"host": [
								"{{url}}"
							],
							"path": [
								"api",
								"auth",
								"register"
							]
						}
					},
					"response": []
				},
				{
					"name": "Refresh Token",
					"event": [
						{
							"listen": "test",
							"script": {
								"exec": [
									"pm.test(\"Status code is 200\", function () {",
									"    pm.response.to.have.status(200);",
									"    pm.expect(pm.response.text()).to.include(\"accessToken\")",
									"    pm.expect(pm.response.text()).to.include(\"refreshToken\")",
									"    ",
									"    const response = JSON.parse(pm.response.text())",
									"    pm.environment.set(\"ACCESS_TOKEN\", response.accessToken);",
									"    pm.environment.set(\"REFRESH_TOKEN\", response.refreshToken);",
									"});"
								],
								"type": "text/javascript"
							}
						}
					],
					"request": {
						"method": "POST",
						"header": [
							{
								"key": "Content-Type",
								"type": "text",
								"value": "application/json",
								"disabled": true
							}
						],
						"body": {
							"mode": "raw",
							"raw": "{\n    \"token\": \"eyJhbGciOiJSUzI1NiIsInR5cCI6IkpXVCJ9.eyJ1c2VyX3V1aWQiOiJkY2FhYzIyNy00MWY5LTQxMWEtYjM3Ny01ZmE0ZGI2YjA4ODQiLCJpYXQiOjE2MjE0NzMxMDksImlzcyI6ImJhY2tlbmQubG9jYWwiLCJzdWIiOiJyZWZyZXNoLXRva2VuIn0.WIoF5YsHK3HiC1jZgKfV1T5eTH9s6KkC72L3zhzkhkMvsln3ILjfiEIZgya4VY7G_muFUu4TH_3m6HfS7tb6tdAHuH2IiIGNADp1yKGo5rncl9rXtGTpgprhYTG9el4UNFogPDZfCxa7JDuj8lFmFLEV1dXal5ROH8kJvVqbPmcHYLhfLrIibTUuhrgCrGxo9vF9DJqJVwrDiZG2MbP8FD3EPEjqdWKacBdN-oJj9v3TrxBJMNv_rTIlJro7xzd7FCcEPRXAUn4lJp5yarsXxlHhi_Hb_nOUnufs-jC91IgKORVthwS_UJr25XdaGD6tkqKORXbZqys04wYp-Iqbsw\"\n}",
							"options": {
								"raw": {
									"language": "json"
								}
							}
						},
						"url": {
							"raw": "{{url}}/api/auth/refresh",
							"host": [
								"{{url}}"
							],
							"path": [
								"api",
								"auth",
								"refresh"
							]
						}
					},
					"response": []
				},
				{
					"name": "Send Verification Email",
					"event": [
						{
							"listen": "test",
							"script": {
								"exec": [
									"pm.test(\"Status code is 200\", function () {",
									"    pm.response.to.have.status(200);",
									"    pm.environment.set(\"VERIFY_EMAIL_TOKEN\", pm.response.text());",
									"});"
								],
								"type": "text/javascript"
							}
						}
					],
					"request": {
						"method": "POST",
						"header": [
							{
								"key": "Content-Type",
								"type": "text",
								"value": "application/json"
							}
						],
						"body": {
							"mode": "raw",
							"raw": "{\n    \"email\": \"rdfedor@gmail.com\"\n}",
							"options": {
								"raw": {
									"language": "json"
								}
							}
						},
						"url": {
							"raw": "{{url}}/api/auth/verify-email",
							"host": [
								"{{url}}"
							],
							"path": [
								"api",
								"auth",
								"verify-email"
							]
						}
					},
					"response": []
				},
				{
					"name": "Verify Email",
					"event": [
						{
							"listen": "test",
							"script": {
								"exec": [
									"pm.test(\"Status code is 200\", function () {",
									"    pm.response.to.have.status(200);",
									"    pm.environment.set(\"VERIFY_EMAIL_TOKEN\", pm.response.text());",
									"});"
								],
								"type": "text/javascript"
							}
						}
					],
					"request": {
						"method": "PUT",
						"header": [
							{
								"key": "Content-Type",
								"type": "text",
								"value": "application/json"
							}
						],
						"body": {
							"mode": "raw",
							"raw": "{\n    \"challengeCode\": \"697609\",\n    \"token\": \"{{VERIFY_EMAIL_TOKEN}}\"\n}",
							"options": {
								"raw": {
									"language": "json"
								}
							}
						},
						"url": {
							"raw": "{{url}}/api/auth/verify-email",
							"host": [
								"{{url}}"
							],
							"path": [
								"api",
								"auth",
								"verify-email"
							]
						}
					},
					"response": []
				},
				{
					"name": "JWKS",
					"request": {
						"method": "GET",
						"header": [],
						"url": {
							"raw": "{{url}}/.well-known/jwks.json",
							"host": [
								"{{url}}"
							],
							"path": [
								".well-known",
								"jwks.json"
							]
						}
					},
					"response": []
				}
			]
		},
		{
			"name": "User",
			"item": [
				{
					"name": "List Users",
					"request": {
						"auth": {
							"type": "bearer",
							"bearer": [
								{
									"key": "token",
									"value": "{{ACCESS_TOKEN}}",
									"type": "string"
								}
							]
						},
						"method": "GET",
						"header": [],
						"url": {
							"raw": "{{url}}/api/users",
							"host": [
								"{{url}}"
							],
							"path": [
								"api",
								"users"
							]
						}
					},
					"response": []
				},
				{
					"name": "User",
					"request": {
						"auth": {
							"type": "bearer",
							"bearer": [
								{
									"key": "token",
									"value": "{{ACCESS_TOKEN}}",
									"type": "string"
								}
							]
						},
						"method": "GET",
						"header": [],
						"url": {
							"raw": "{{url}}/api/user/dcaac227-41f9-411a-b377-5fa4db6b0884",
							"host": [
								"{{url}}"
							],
							"path": [
								"api",
								"user",
								"dcaac227-41f9-411a-b377-5fa4db6b0884"
							]
						}
					},
					"response": []
				},
				{
					"name": "Add Role",
					"request": {
						"auth": {
							"type": "bearer",
							"bearer": [
								{
									"key": "token",
									"value": "{{ACCESS_TOKEN}}",
									"type": "string"
								}
							]
						},
						"method": "POST",
						"header": [],
						"body": {
							"mode": "raw",
							"raw": "{\n    \"roleName\": \"BANNED\"\n}",
							"options": {
								"raw": {
									"language": "json"
								}
							}
						},
						"url": {
							"raw": "{{url}}/api/user/dcaac227-41f9-411a-b377-5fa4db6b0884/role",
							"host": [
								"{{url}}"
							],
							"path": [
								"api",
								"user",
								"dcaac227-41f9-411a-b377-5fa4db6b0884",
								"role"
							]
						}
					},
					"response": []
				},
				{
					"name": "Delete Role",
					"request": {
						"auth": {
							"type": "bearer",
							"bearer": [
								{
									"key": "token",
									"value": "{{ACCESS_TOKEN}}",
									"type": "string"
								}
							]
						},
						"method": "DELETE",
						"header": [],
						"body": {
							"mode": "raw",
							"raw": "{\n    \"role_name\": \"BANNED\"\n}",
							"options": {
								"raw": {
									"language": "json"
								}
							}
						},
						"url": {
							"raw": "{{url}}/api/user/dcaac227-41f9-411a-b377-5fa4db6b0884/role",
							"host": [
								"{{url}}"
							],
							"path": [
								"api",
								"user",
								"dcaac227-41f9-411a-b377-5fa4db6b0884",
								"role"
							]
						}
					},
					"response": []
				}
			]
		},
		{
			"name": "Movie",
			"item": [
				{
					"name": "List Movies",
					"request": {
						"method": "GET",
						"header": [],
						"url": {
							"raw": "{{url}}/api/movies",
							"host": [
								"{{url}}"
							],
							"path": [
								"api",
								"movies"
							]
						}
					},
					"response": []
				},
				{
					"name": "Get Movie",
					"request": {
						"method": "GET",
						"header": [],
						"url": {
							"raw": "{{url}}/api/movie/ddffc5d2-d5ab-401c-97ec-c6886d64ef79",
							"host": [
								"{{url}}"
							],
							"path": [
								"api",
								"movie",
								"ddffc5d2-d5ab-401c-97ec-c6886d64ef79"
							]
						}
					},
					"response": []
				},
				{
					"name": "Add Movie",
					"request": {
						"auth": {
							"type": "bearer",
							"bearer": [
								{
									"key": "token",
									"value": "{{ACCESS_TOKEN}}",
									"type": "string"
								}
							]
						},
						"method": "POST",
						"header": [],
						"body": {
							"mode": "raw",
							"raw": "{\n    \"title\": \"Test Movie\",\n    \"description\": \"This is a test description\",\n    \"ratingClassificationId\": 1,\n    \"releaseDate\": \"2021-05-20\"\n}",
							"options": {
								"raw": {
									"language": "json"
								}
							}
						},
						"url": {
							"raw": "{{url}}/api/movie",
							"host": [
								"{{url}}"
							],
							"path": [
								"api",
								"movie"
							]
						}
					},
					"response": []
				},
				{
					"name": "Update Movie",
					"request": {
						"auth": {
							"type": "bearer",
							"bearer": [
								{
									"key": "token",
									"value": "{{ACCESS_TOKEN}}",
									"type": "string"
								}
							]
						},
						"method": "POST",
						"header": [],
						"body": {
							"mode": "raw",
							"raw": "{\n    \"title\": \"Test Movie\",\n    \"description\": \"This is a test description\",\n    \"ratingClassificationId\": 1,\n    \"releaseDate\": \"2021-05-20\"\n}",
							"options": {
								"raw": {
									"language": "json"
								}
							}
						},
						"url": {
							"raw": "{{url}}/api/movie/ddffc5d2-d5ab-401c-97ec-c6886d64ef79",
							"host": [
								"{{url}}"
							],
							"path": [
								"api",
								"movie",
								"ddffc5d2-d5ab-401c-97ec-c6886d64ef79"
							]
						}
					},
					"response": []
				}
			]
		}
	]
}